Code/hdl/simulation/j1soc_TB.vcd
$date
	Fri Jul 26 10:08:50 2019
$end
$version
	Icarus Verilog
$end
$timescale
	1s
$end
$scope module j1soc_TB $end
$scope module uut $end
$var wire 4 ! cols [3:0] $end
$var wire 16 " i2c_dout [15:0] $end
$var wire 16 # spi_dout [15:0] $end
$var wire 1 $ sys_clk_i $end
$var wire 1 % sys_rst_i $end
$var wire 1 & uart_tx $end
$var wire 1 ' uart_rx $end
$var wire 16 ( uart_dout [15:0] $end
$var wire 7 ) segs [6:0] $end
$var wire 4 * rows [3:0] $end
$var wire 1 + j1_io_wr $end
$var wire 1 , j1_io_rd $end
$var wire 16 - j1_io_dout [15:0] $end
$var wire 16 . j1_io_addr [15:0] $end
$var wire 16 / i2s_dout [15:0] $end
$var wire 16 0 dp_ram_dout [15:0] $end
$var wire 16 1 board_dout [15:0] $end
$var wire 16 2 bcd_dout [15:0] $end
$var wire 8 3 anode [7:0] $end
$var wire 1 4 WS $end
$var wire 1 5 SD $end
$var wire 1 6 SCK $end
$var reg 7 7 cs [6:0] $end
$var reg 16 8 j1_io_din [15:0] $end
$scope module cpu0 $end
$var wire 1 9 _dstkW $end
$var wire 1 : _ramWE $end
$var wire 16 ; io_addr [15:0] $end
$var wire 16 < io_din [15:0] $end
$var wire 16 = io_dout [15:0] $end
$var wire 1 , io_rd $end
$var wire 1 + io_wr $end
$var wire 16 > rst0 [15:0] $end
$var wire 16 ? st1 [15:0] $end
$var wire 1 $ sys_clk_i $end
$var wire 1 % sys_rst_i $end
$var wire 2 @ rd [1:0] $end
$var wire 16 A ramrd [15:0] $end
$var wire 16 B pc_plus_1 [15:0] $end
$var wire 1 C is_lit $end
$var wire 1 D is_alu $end
$var wire 16 E insn [15:0] $end
$var wire 16 F immediate [15:0] $end
$var wire 2 G dd [1:0] $end
$var reg 5 H _dsp [4:0] $end
$var reg 13 I _pc [12:0] $end
$var reg 5 J _rsp [4:0] $end
$var reg 16 K _rstkD [15:0] $end
$var reg 1 L _rstkW $end
$var reg 16 M _st0 [15:0] $end
$var reg 5 N dsp [4:0] $end
$var reg 13 O pc [12:0] $end
$var reg 5 P rsp [4:0] $end
$var reg 16 Q st0 [15:0] $end
$var reg 4 R st0sel [3:0] $end
$scope module ram0 $end
$var wire 13 S adr_a [12:0] $end
$var wire 13 T adr_b [12:0] $end
$var wire 1 $ clk_a $end
$var wire 1 $ clk_b $end
$var wire 16 U dat_a [15:0] $end
$var wire 1 V en_a $end
$var wire 1 W en_b $end
$var wire 1 X we_a $end
$var reg 16 Y dat_a_out [15:0] $end
$var reg 16 Z dat_b [15:0] $end
$upscope $end
$upscope $end
$scope module dpRm $end
$var wire 8 [ addr [7:0] $end
$var wire 1 $ clk $end
$var wire 1 \ cs $end
$var wire 16 ] d_in [15:0] $end
$var wire 1 , rd $end
$var wire 1 + wr $end
$var wire 1 ^ wr_p $end
$var wire 1 _ rd_p $end
$var wire 16 ` d_out_p [15:0] $end
$var wire 16 a d_out [15:0] $end
$var wire 16 b d_in_p [15:0] $end
$var wire 8 c addr_p [7:0] $end
$scope module c_p $end
$var wire 1 $ clk $end
$var wire 16 d d_in [15:0] $end
$var reg 16 e F_1 [15:0] $end
$var reg 16 f F_2 [15:0] $end
$var reg 16 g F_3 [15:0] $end
$var reg 16 h F_4 [15:0] $end
$var reg 16 i F_5 [15:0] $end
$var reg 16 j F_6 [15:0] $end
$var reg 8 k addr [7:0] $end
$var reg 16 l d_out [15:0] $end
$var reg 4 m estado [3:0] $end
$var reg 1 _ rd $end
$var reg 1 ^ wr $end
$upscope $end
$scope module dlptRAM $end
$var wire 8 n addr_1 [7:0] $end
$var wire 8 o addr_2 [7:0] $end
$var wire 1 $ clk $end
$var wire 16 p d_in_1 [15:0] $end
$var wire 16 q d_in_2 [15:0] $end
$var wire 1 r rd_1 $end
$var wire 1 _ rd_2 $end
$var wire 1 s wr_1 $end
$var wire 1 ^ wr_2 $end
$var reg 16 t d_out_1 [15:0] $end
$var reg 16 u d_out_2 [15:0] $end
$upscope $end
$upscope $end
$scope module per_bcd $end
$var wire 4 v addr [3:0] $end
$var wire 1 $ clk $end
$var wire 1 w cs $end
$var wire 16 x din [15:0] $end
$var wire 1 , rd $end
$var wire 1 + wr $end
$var wire 7 y segs [6:0] $end
$var wire 8 z anode [7:0] $end
$var reg 16 { dout [15:0] $end
$var reg 1 | init $end
$var reg 4 } n [3:0] $end
$var reg 2 ~ s [1:0] $end
$scope module display $end
$var wire 1 | init $end
$var wire 4 !" n [3:0] $end
$var reg 8 "" anode [7:0] $end
$var reg 7 #" segs [6:0] $end
$upscope $end
$upscope $end
$scope module per_board $end
$var wire 4 $" addr [3:0] $end
$var wire 1 $ clk $end
$var wire 4 %" cols [3:0] $end
$var wire 1 &" cs $end
$var wire 16 '" din [15:0] $end
$var wire 1 , rd $end
$var wire 1 + wr $end
$var wire 4 (" rows [3:0] $end
$var wire 4 )" n [3:0] $end
$var reg 16 *" dout [15:0] $end
$var reg 1 +" init $end
$var reg 2 ," s [1:0] $end
$scope module board $end
$var wire 1 $ clk $end
$var wire 4 -" cols [3:0] $end
$var wire 1 +" init $end
$var wire 4 ." rows [3:0] $end
$var reg 4 /" n [3:0] $end
$scope module s $end
$var wire 1 $ clk $end
$var wire 1 +" init $end
$var reg 33 0" count [32:0] $end
$var reg 4 1" out [3:0] $end
$upscope $end
$upscope $end
$upscope $end
$scope module per_i2s $end
$var wire 4 2" addr [3:0] $end
$var wire 1 $ clk $end
$var wire 1 3" cs $end
$var wire 16 4" din [15:0] $end
$var wire 1 , rd $end
$var wire 1 % rst $end
$var wire 1 + wr $end
$var wire 1 5" full $end
$var wire 1 6" empty $end
$var wire 1 4 WS $end
$var wire 1 5 SD $end
$var wire 1 6 SCK $end
$var reg 32 7" data [31:0] $end
$var reg 16 8" dout [15:0] $end
$var reg 1 9" load $end
$var reg 5 :" s [4:0] $end
$scope module I2S $end
$var wire 1 $ clk $end
$var wire 32 ;" data [31:0] $end
$var wire 1 9" load $end
$var wire 1 % rst $end
$var wire 32 <" serial [31:0] $end
$var wire 1 5" full $end
$var wire 1 6" empty $end
$var wire 1 =" busy $end
$var wire 1 4 WS $end
$var wire 1 5 SD $end
$var wire 1 6 SCK $end
$scope module i2s $end
$var wire 1 $ clk $end
$var wire 1 >" init $end
$var wire 5 ?" num [4:0] $end
$var wire 32 @" data [31:0] $end
$var wire 1 =" busy $end
$var wire 1 4 WS $end
$var wire 1 5 SD $end
$var wire 1 6 SCK $end
$scope module co $end
$var wire 1 A" rst $end
$var wire 1 6 count $end
$var reg 5 B" num [4:0] $end
$upscope $end
$scope module comp0 $end
$var wire 5 C" x [4:0] $end
$var wire 1 =" z $end
$upscope $end
$scope module comp16 $end
$var wire 5 D" x [4:0] $end
$var reg 1 4 z $end
$upscope $end
$scope module f $end
$var wire 1 $ clki $end
$var wire 1 >" init $end
$var reg 1 6 clko $end
$var reg 7 E" count [6:0] $end
$upscope $end
$scope module s $end
$var wire 1 6 SH $end
$var wire 1 F" load $end
$var wire 32 G" data [31:0] $end
$var wire 1 5 SD $end
$var reg 32 H" tmp [31:0] $end
$upscope $end
$upscope $end
$scope module mem $end
$var wire 1 9" R $end
$var wire 1 I" W $end
$var wire 32 J" dataIn [31:0] $end
$var wire 1 % rst $end
$var reg 32 K" dataOut [31:0] $end
$var reg 1 6" empty $end
$var reg 1 5" full $end
$var reg 7 L" p_in [6:0] $end
$var reg 7 M" p_out [6:0] $end
$upscope $end
$upscope $end
$upscope $end
$scope module per_uart $end
$var wire 4 N" addr [3:0] $end
$var wire 1 $ clk $end
$var wire 1 O" cs $end
$var wire 16 P" d_in [15:0] $end
$var wire 1 , rd $end
$var wire 1 % rst $end
$var wire 1 & rx $end
$var wire 1 + wr $end
$var wire 1 ' tx $end
$var wire 1 Q" ready $end
$var wire 1 R" rcv $end
$var wire 8 S" data_rx [7:0] $end
$var reg 16 T" d_out [15:0] $end
$var reg 8 U" data_tx [7:0] $end
$var reg 5 V" s [4:0] $end
$var reg 1 W" start $end
$scope module UART $end
$var wire 1 $ clk $end
$var wire 8 X" data_tx [7:0] $end
$var wire 1 % rstn $end
$var wire 1 & rx $end
$var wire 1 W" start $end
$var wire 1 ' tx $end
$var wire 1 Q" ready $end
$var wire 1 R" rcv $end
$var wire 8 Y" data_rx [7:0] $end
$scope module RX $end
$var wire 1 $ clk $end
$var wire 1 % rstn $end
$var wire 1 & rx $end
$var wire 1 Z" clk_baud $end
$var reg 1 [" bauden $end
$var reg 4 \" bitc [3:0] $end
$var reg 1 ]" clear $end
$var reg 8 ^" data [7:0] $end
$var reg 1 _" load $end
$var reg 10 `" raw_data [9:0] $end
$var reg 1 R" rcv $end
$var reg 1 a" rx_r $end
$var reg 2 b" state [1:0] $end
$scope module baudgen0 $end
$var wire 1 $ clk $end
$var wire 1 [" clk_ena $end
$var wire 1 Z" clk_out $end
$var reg 14 c" divcounter [13:0] $end
$scope function clog2 $end
$var integer 32 d" clog2 [31:0] $end
$var integer 32 e" value [31:0] $end
$upscope $end
$upscope $end
$upscope $end
$scope module TX $end
$var wire 1 $ clk $end
$var wire 8 f" data [7:0] $end
$var wire 1 % rstn $end
$var wire 1 W" start $end
$var wire 1 Q" ready $end
$var wire 1 g" load $end
$var wire 1 h" clk_baud $end
$var wire 1 i" baud_en $end
$var reg 4 j" bitc [3:0] $end
$var reg 8 k" data_r [7:0] $end
$var reg 10 l" shifter [9:0] $end
$var reg 1 m" start_r $end
$var reg 2 n" state [1:0] $end
$var reg 1 ' tx $end
$scope module BAUD0 $end
$var wire 1 $ clk $end
$var wire 1 i" clk_ena $end
$var wire 1 h" clk_out $end
$var reg 14 o" divcounter [13:0] $end
$scope function clog2 $end
$var integer 32 p" clog2 [31:0] $end
$var integer 32 q" value [31:0] $end
$upscope $end
$upscope $end
$upscope $end
$upscope $end
$upscope $end
$upscope $end
$upscope $end
$enddefinitions $end
#0
$dumpvars
bx q"
bx p"
b10100010110000 o"
b0 n"
xm"
b1111111111 l"
bx k"
bx j"
0i"
0h"
0g"
bx f"
bx e"
bx d"
b10100010110000 c"
b0 b"
za"
bx `"
0_"
b0 ^"
1]"
bx \"
0["
0Z"
b0 Y"
bx X"
xW"
b0 V"
bx U"
bx T"
b0 S"
0R"
1Q"
bx P"
0O"
b0 N"
b0 M"
b0 L"
bx K"
bx J"
1I"
bx H"
bx G"
1F"
b0 E"
b0 D"
b0 C"
b0 B"
1A"
bx @"
b0 ?"
0>"
0="
bx <"
bx ;"
b0 :"
x9"
bx 8"
bx 7"
16"
05"
bx 4"
03"
b0 2"
b1 1"
b0 0"
bx /"
b1 ."
bx -"
b0 ,"
x+"
bx *"
bx )"
b1 ("
bx '"
0&"
bx %"
b0 $"
bx #"
b11111110 ""
bx !"
b0 ~
bx }
x|
bx {
b11111110 z
bx y
bx x
0w
b0 v
b0 u
b0 t
0s
0r
b0 q
bx p
b1010 o
b0 n
b0 m
b0 l
b1010 k
b0 j
b0 i
b0 h
b0 g
b0 f
b0 e
b0 d
b1010 c
b0 b
b0 a
b0 `
1_
0^
bx ]
0\
b0 [
bx Z
bx Y
xX
1W
xV
bx U
b0 T
b0 S
bx R
b0 Q
b0 P
b0 O
b0 N
bx M
0L
b0 K
b0 J
b0 I
b0 H
bx G
b0xxxxxxxxxxxxxxx F
bx E
xD
xC
b1 B
bx A
bx @
bx ?
bx >
bx =
b11001100110 <
b0 ;
x:
x9
b11001100110 8
b0 7
06
x5
04
b11111110 3
bx 2
bx 1
b0 0
bx /
b0 .
bx -
0,
x+
b1 *
bx )
bx (
x'
z&
1%
1$
bz #
bz "
bx !
$end
#1
bx `
bx d
bx u
b0 /
b0 8"
b0 (
b0 T"
b0 1
b0 *"
0$
#2
0X
1V
09
0+
0:
b0 M
b0 @
b10 G
0C
0D
b1100010010 F
b0 R
b0 \"
1'
b1100010010 E
b1100010010 Z
bx j
1$
#3
0$
#4
b1100010010 A
b1100010010 Y
1$
#5
0$
#6
1$
#7
0$
#8
1$
#9
0$
#10
0V
19
b1 H
b11 @
b1 G
1C
b101101111001101 F
b101101111001101 M
b1100010011 B
b1100010010 O
b1101101111001101 E
b1101101111001101 Z
b1100010011 K
b1100010011 T
b1100010011 I
1$
0%
#11
0$
#12
b111111100000001 M
b110111100110 S
b1100010100 K
b0 @
b111111100000001 F
b1111 R
b1101 v
b1101 $"
b1101 N"
b1101 2"
b11001101 [
b11001101 n
b1100010100 T
b1100010100 I
b10 H
b1111111100000001 E
b1111111100000001 Z
b101101111001101 .
b101101111001101 ;
b101101111001101 Q
b1100010100 B
b1100010011 O
b0 -
b0 =
b0 ]
b0 p
b0 x
b0 '"
b0 4"
b0 P"
b0 ?
b0 U
b1 N
1$
#13
0$
#14
b1111110000000 S
09
1L
b1 J
b1 v
b1 $"
b1 N"
b1 2"
b1 [
b1 n
b11 @
b11 G
0C
b100001011111111 F
b0 R
b111111100000001 M
b11000101010 K
b10 H
b1011111111 T
b1011111111 I
b111111100000001 .
b111111100000001 ;
b111111100000001 Q
b1100010101 B
b1100010100 O
b101101111001101 -
b101101111001101 =
b101101111001101 ]
b101101111001101 p
b101101111001101 x
b101101111001101 '"
b101101111001101 4"
b101101111001101 P"
b101101111001101 ?
b101101111001101 U
b10 N
b100001011111111 E
b100001011111111 Z
1$
#15
0$
#16
19
b11 H
b0 @
b10 G
1C
b110100000000010 F
b1000 R
b110100000000010 M
b1100000000 T
b1100000000 I
b1100000000 K
0L
b1110100000000010 E
b1110100000000010 Z
b11000101010 >
b1 P
b1100000000 B
b1011111111 O
1$
#17
0$
#18
0X
b1010000000001 S
b10 :"
b0 8
b0 <
13"
09
1+
1:
0V
b10 v
b10 $"
b10 N"
b10 2"
b10 [
b10 n
b10 7
b11 G
0C
1D
b110000000100011 F
b0 R
b110100000000010 M
b110100000000010 K
b10 H
b1100000001 T
b1100000001 I
b110100000000010 .
b110100000000010 ;
b110100000000010 Q
b1100000001 B
b1100000000 O
b111111100000001 -
b111111100000001 =
b111111100000001 ]
b111111100000001 p
b111111100000001 x
b111111100000001 '"
b111111100000001 4"
b111111100000001 P"
b111111100000001 ?
b111111100000001 U
b11 N
b110000000100011 E
b110000000100011 Z
1$
#19
bx0111111100000001 7"
bx0111111100000001 ;"
bx0111111100000001 J"
0$
#20
b0 :"
0+
0:
b101101111001101 M
b110000100000011 F
b1 R
b1100000010 T
b1100000010 I
b1 H
b110000100000011 E
b110000100000011 Z
b1100000010 B
b1100000001 O
b101101111001101 -
b101101111001101 =
b101101111001101 ]
b101101111001101 p
b101101111001101 x
b101101111001101 '"
b101101111001101 4"
b101101111001101 P"
b101101111001101 ?
b101101111001101 U
b10 N
1$
#21
0$
#22
b110111100110 S
b11001100110 8
b11001100110 <
03"
19
b1101 v
b1101 $"
b1101 N"
b1101 2"
b11001101 [
b11001101 n
b0 7
b1 @
b0 G
1C
0D
b110100000000100 F
b1000 R
b110100000000100 M
b1100000011 K
b10 H
b1100000011 T
b1100000011 I
b101101111001101 .
b101101111001101 ;
b101101111001101 Q
b1100000011 B
b1100000010 O
b0 -
b0 =
b0 ]
b0 p
b0 x
b0 '"
b0 4"
b0 P"
b0 ?
b0 U
b1 N
b1110100000000100 E
b1110100000000100 Z
1$
#23
0$
#24
b100 :"
09
1+
1:
b1010000000010 S
b0 8
b0 <
13"
b110100000000100 K
b0 @
b11 G
0C
1D
b110000000100011 F
b0 R
b100 v
b100 $"
b100 N"
b100 2"
b100 [
b100 n
b10 7
b1100000100 T
b1100000100 I
b1 H
b110100000000100 M
b110000000100011 E
b110000000100011 Z
b110100000000100 .
b110100000000100 ;
b110100000000100 Q
b1100000100 B
b1100000011 O
b101101111001101 -
b101101111001101 =
b101101111001101 ]
b101101111001101 p
b101101111001101 x
b101101111001101 '"
b101101111001101 4"
b101101111001101 P"
b101101111001101 ?
b101101111001101 U
b10 N
1$
#25
b1011011110011010111111100000001 7"
b1011011110011010111111100000001 ;"
b1011011110011010111111100000001 J"
0$
#26
b0 :"
1V
0+
0:
b0 M
b110000100000011 F
b1 R
b0 H
b1100000101 T
b1100000101 I
b1100000101 B
b1100000100 O
b0 -
b0 =
b0 ]
b0 p
b0 x
b0 '"
b0 4"
b0 P"
b0 ?
b0 U
b1 N
b110000100000011 E
b110000100000011 Z
1$
#27
0$
#28
19
b0 S
b11001100110 8
b11001100110 <
03"
0V
b10 @
b0 G
1C
0D
b110100000001000 F
b1000 R
b0 v
b0 $"
b0 N"
b0 2"
b0 [
b0 n
b0 7
b1100000110 T
b1100000110 I
b1100000110 K
b1 H
b110100000001000 M
b1110100000001000 E
b1110100000001000 Z
b1111111111111111 A
b1111111111111111 Y
b0 .
b0 ;
b0 Q
b1100000110 B
b1100000101 O
bx -
bx =
bx ]
bx p
bx x
bx '"
bx 4"
bx P"
bx ?
bx U
b0 N
1$
#29
0$
#30
b10000 :"
1V
b1010000000100 S
1,
b0 8
b0 <
13"
09
b1000 v
b1000 $"
b1000 N"
b1000 2"
b1000 [
b1000 n
b10 7
b0 @
0C
1D
b110110000000000 F
b1100 R
b0 M
b110100000001000 K
b1 H
b1100000111 T
b1100000111 I
b110100000001000 .
b110100000001000 ;
b110100000001000 Q
b1100000111 B
b1100000110 O
b0 -
b0 =
b0 ]
b0 p
b0 x
b0 '"
b0 4"
b0 P"
b0 ?
b0 U
b1 N
b110110000000000 E
b110110000000000 Z
1$
#31
0$
#32
19
1V
b0 S
0,
b0 :"
b11001100110 8
b11001100110 <
03"
b10 H
1C
0D
b0 F
b0 R
b0 M
b0 v
b0 $"
b0 N"
b0 2"
b0 [
b0 n
b0 7
b1100001000 T
b1100001000 I
b1100001000 K
b1000000000000000 E
b1000000000000000 Z
b0 .
b0 ;
b0 Q
b1100001000 B
b1100000111 O
1$
#33
0$
#34
0V
09
b1111111111111111 M
b11 G
0C
1D
b110011100000011 F
b111 R
b0 K
b1 H
b1100001001 T
b1100001001 I
b1100001001 B
b1100001000 O
b10 N
b1100010010 A
b1100010010 Y
b110011100000011 E
b110011100000011 Z
1$
#35
0$
#36
b1111111111111 S
1V
b1 @
b1 G
0D
b10001100000101 F
b1 R
b1111 v
b1111 $"
b1111 N"
b1111 2"
b11111111 [
b11111111 n
b1100001010 T
b1100001010 I
b1100001010 K
b0 H
b0 M
b10001100000101 E
b10001100000101 Z
b1111111111111111 .
b1111111111111111 ;
b1111111111111111 Q
b1100001010 B
b1100001001 O
b1 N
1$
#37
0$
#38
b0 S
19
b1 H
b0 v
b0 $"
b0 N"
b0 2"
b0 [
b0 n
b0 @
1C
b1 F
b0 R
b1 M
b1100001011 K
b1100001011 T
b1100001011 I
b0 .
b0 ;
b0 Q
b1100001011 B
b1100001010 O
bx -
bx =
bx ]
bx p
bx x
bx '"
bx 4"
bx P"
bx ?
bx U
b0 N
b1111111111111111 A
b1111111111111111 Y
b1000000000000001 E
b1000000000000001 Z
1$
#39
0$
#40
0V
b110100000000000 M
b1100001100 K
b0 G
b110100000000000 F
b1000 R
b1 v
b1 $"
b1 N"
b1 2"
b1 [
b1 n
b1100001100 T
b1100001100 I
b10 H
b1110100000000000 E
b1110100000000000 Z
b1100010010 A
b1100010010 Y
b1 .
b1 ;
b1 Q
b1100001100 B
b1100001011 O
b0 -
b0 =
b0 ]
b0 p
b0 x
b0 '"
b0 4"
b0 P"
b0 ?
b0 U
b1 N
1$
#41
0$
#42
b1010000000000 S
b1 :"
b0 8
b0 <
13"
09
1+
1:
b0 v
b0 $"
b0 N"
b0 2"
b0 [
b0 n
b10 7
b11 G
0C
1D
b110000000100011 F
b0 R
b110100000000000 M
b110100000000000 K
b1 H
b1100001101 T
b1100001101 I
b110100000000000 .
b110100000000000 ;
b110100000000000 Q
b1100001101 B
b1100001100 O
b1 -
b1 =
b1 ]
b1 p
b1 x
b1 '"
b1 4"
b1 P"
b1 ?
b1 U
b10 N
b110000000100011 E
b110000000100011 Z
1$
#43
1>"
06"
b1 L"
19"
0$
#44
b0 :"
1V
0+
0:
b0 M
b110000100000011 F
b1 R
b1100001110 T
b1100001110 I
b0 H
b110000100000011 E
b110000100000011 Z
b1100001110 B
b1100001101 O
b0 -
b0 =
b0 ]
b0 p
b0 x
b0 '"
b0 4"
b0 P"
b0 ?
b0 U
b1 N
b1 E"
1$
#45
0$
#46
b0 S
b11001100110 8
b11001100110 <
03"
19
1V
b0 7
b0 G
1C
0D
b0 F
b0 R
b0 M
b1100001111 K
b1 H
b1100001111 T
b1100001111 I
b0 .
b0 ;
b0 Q
b1100001111 B
b1100001110 O
bx -
bx =
bx ]
bx p
bx x
bx '"
bx 4"
bx P"
bx ?
bx U
b0 N
b1111111111111111 A
b1111111111111111 Y
b1000000000000000 E
b1000000000000000 Z
b10 E"
1$
#47
0$
#48
0V
b110100000000000 M
b1100010000 K
b110100000000000 F
b1000 R
b1100010000 T
b1100010000 I
b10 H
b1110100000000000 E
b1110100000000000 Z
b1100010010 A
b1100010010 Y
b1100010000 B
b1100001111 O
b0 -
b0 =
b0 ]
b0 p
b0 x
b0 '"
b0 4"
b0 P"
b0 ?
b0 U
b1 N
b11 E"
1$
#49
0$
#50
b1 :"
b1010000000000 S
b0 8
b0 <
13"
09
1+
1:
b10 7
b11 G
0C
1D
b110000000100011 F
b0 R
b110100000000000 M
b110100000000000 K
b1 H
b1100010001 T
b1100010001 I
b110100000000000 .
b110100000000000 ;
b110100000000000 Q
b1100010001 B
b1100010000 O
b10 N
b110000000100011 E
b110000000100011 Z
b100 E"
1$
#51
09"
0$
#52
b0 :"
1V
0+
0:
b0 M
b0 J
b11 @
b111000100001111 F
b1 R
b1100010101 T
b1100010101 I
b0 H
b111000100001111 E
b111000100001111 Z
b1100010010 B
b1100010001 O
b1 N
b101 E"
1$
#53
0$
#54
b0 S
b11001100110 8
b11001100110 <
03"
19
1V
b0 7
b1 @
b0 G
1C
0D
b1001000110100 F
b0 R
b1001000110100 M
b1100010110 K
b0 J
b1 H
b1100010110 T
b1100010110 I
bx >
b0 P
b0 .
b0 ;
b0 Q
b1100010110 B
b1100010101 O
bx -
bx =
bx ]
bx p
bx x
bx '"
bx 4"
bx P"
bx ?
bx U
b0 N
b1111111111111111 A
b1111111111111111 Y
b1001001000110100 E
b1001001000110100 Z
b110 E"
1$
#55
0$
#56
0V
b101011001111000 M
b100100011010 S
b1100010111 K
b10 @
b101011001111000 F
b100 v
b100 $"
b100 N"
b100 2"
b110100 [
b110100 n
b1100010111 T
b1100010111 I
b10 H
b1101011001111000 E
b1101011001111000 Z
b1100010010 A
b1100010010 Y
b1001000110100 .
b1001000110100 ;
b1001000110100 Q
b1100010111 B
b1100010110 O
b0 -
b0 =
b0 ]
b0 p
b0 x
b0 '"
b0 4"
b0 P"
b0 ?
b0 U
b1 N
b111 E"
1$
#57
0$
#58
b101100111100 S
09
b1000 v
b1000 $"
b1000 N"
b1000 2"
b1111000 [
b1111000 n
b11 @
b11 G
0C
b1011111111 F
b1011111111 K
b10 H
b1011111111 T
b1011111111 I
b101011001111000 .
b101011001111000 ;
b101011001111000 Q
b1100011000 B
b1100010111 O
b1001000110100 -
b1001000110100 =
b1001000110100 ]
b1001000110100 p
b1001000110100 x
b1001000110100 '"
b1001000110100 4"
b1001000110100 P"
b1001000110100 ?
b1001000110100 U
b10 N
b1011111111 E
b1011111111 Z
b1000 E"
1$
#59
0$
#60
19
0V
b1100000000 K
b11 H
b0 @
b10 G
1C
b110100000000010 F
b1000 R
b110100000000010 M
b1100000000 T
b1100000000 I
b1110100000000010 E
b1110100000000010 Z
b1100000000 B
b1011111111 O
b1001 E"
1$
#61
0$
#62
b1010000000001 S
b10 :"
b0 8
b0 <
13"
09
1+
1:
b10 v
b10 $"
b10 N"
b10 2"
b10 [
b10 n
b10 7
b11 G
0C
1D
b110000000100011 F
b0 R
b110100000000010 M
b110100000000010 K
b10 H
b1100000001 T
b1100000001 I
b110100000000010 .
b110100000000010 ;
b110100000000010 Q
b1100000001 B
b1100000000 O
b101011001111000 -
b101011001111000 =
b101011001111000 ]
b101011001111000 p
b101011001111000 x
b101011001111000 '"
b101011001111000 4"
b101011001111000 P"
b101011001111000 ?
b101011001111000 U
b11 N
b110000000100011 E
b110000000100011 Z
b1010 E"
1$
#63
b1011011110011010101011001111000 7"
b1011011110011010101011001111000 ;"
b1011011110011010101011001111000 J"
0$
#64
b0 :"
1V
0+
0:
b1001000110100 M
b110000100000011 F
b1 R
b1100000010 T
b1100000010 I
b1 H
b110000100000011 E
b110000100000011 Z
b1100000010 B
b1100000001 O
b1001000110100 -
b1001000110100 =
b1001000110100 ]
b1001000110100 p
b1001000110100 x
b1001000110100 '"
b1001000110100 4"
b1001000110100 P"
b1001000110100 ?
b1001000110100 U
b10 N
b1011 E"
1$
#65
0$
#66
b100100011010 S
b11001100110 8
b11001100110 <
03"
19
0V
b100 v
b100 $"
b100 N"
b100 2"
b110100 [
b110100 n
b0 7
b1 @
b0 G
1C
0D
b110100000000100 F
b1000 R
b110100000000100 M
b1100000011 K
b10 H
b1100000011 T
b1100000011 I
b1001000110100 .
b1001000110100 ;
b1001000110100 Q
b1100000011 B
b1100000010 O
b0 -
b0 =
b0 ]
b0 p
b0 x
b0 '"
b0 4"
b0 P"
b0 ?
b0 U
b1 N
b1111111111111111 A
b1111111111111111 Y
b1110100000000100 E
b1110100000000100 Z
b1100 E"
1$
#67
0$
#68
b100 :"
09
1+
1:
b1010000000010 S
b0 8
b0 <
13"
b110100000000100 K
b0 @
b11 G
0C
1D
b110000000100011 F
b0 R
b100 [
b100 n
b10 7
b1100000100 T
b1100000100 I
b1 H
b110100000000100 M
b110000000100011 E
b110000000100011 Z
b110100000000100 .
b110100000000100 ;
b110100000000100 Q
b1100000100 B
b1100000011 O
b1001000110100 -
b1001000110100 =
b1001000110100 ]
b1001000110100 p
b1001000110100 x
b1001000110100 '"
b1001000110100 4"
b1001000110100 P"
b1001000110100 ?
b1001000110100 U
b10 N
b1101 E"
1$
#69
b10010001101000101011001111000 7"
b10010001101000101011001111000 ;"
b10010001101000101011001111000 J"
0$
#70
b0 :"
1V
0+
0:
b0 M
b110000100000011 F
b1 R
b0 H
b1100000101 T
b1100000101 I
b1100000101 B
b1100000100 O
b0 -
b0 =
b0 ]
b0 p
b0 x
b0 '"
b0 4"
b0 P"
b0 ?
b0 U
b1 N
b110000100000011 E
b110000100000011 Z
b1110 E"
1$
#71
0$
#72
19
b0 S
b11001100110 8
b11001100110 <
03"
0V
b10 @
b0 G
1C
0D
b110100000001000 F
b1000 R
b0 v
b0 $"
b0 N"
b0 2"
b0 [
b0 n
b0 7
b1100000110 T
b1100000110 I
b1100000110 K
b1 H
b110100000001000 M
b1110100000001000 E
b1110100000001000 Z
b0 .
b0 ;
b0 Q
b1100000110 B
b1100000101 O
bx -
bx =
bx ]
bx p
bx x
bx '"
bx 4"
bx P"
bx ?
bx U
b0 N
b1111 E"
1$
#73
0$
#74
b10000 :"
1V
b1010000000100 S
1,
b0 8
b0 <
13"
09
b1000 v
b1000 $"
b1000 N"
b1000 2"
b1000 [
b1000 n
b10 7
b0 @
0C
1D
b110110000000000 F
b1100 R
b0 M
b110100000001000 K
b1 H
b1100000111 T
b1100000111 I
b110100000001000 .
b110100000001000 ;
b110100000001000 Q
b1100000111 B
b1100000110 O
b0 -
b0 =
b0 ]
b0 p
b0 x
b0 '"
b0 4"
b0 P"
b0 ?
b0 U
b1 N
b110110000000000 E
b110110000000000 Z
b10000 E"
1$
#75
0$
#76
19
1V
b0 S
0,
b0 :"
b11001100110 8
b11001100110 <
03"
b10 H
1C
0D
b0 F
b0 R
b0 M
b0 v
b0 $"
b0 N"
b0 2"
b0 [
b0 n
b0 7
b1100001000 T
b1100001000 I
b1100001000 K
b1000000000000000 E
b1000000000000000 Z
b0 .
b0 ;
b0 Q
b1100001000 B
b1100000111 O
b10001 E"
1$
#77
0$
#78
0V
09
b1111111111111111 M
b11 G
0C
1D
b110011100000011 F
b111 R
b0 K
b1 H
b1100001001 T
b1100001001 I
b1100001001 B
b1100001000 O
b10 N
b1100010010 A
b1100010010 Y
b110011100000011 E
b110011100000011 Z
b10010 E"
1$
#79
0$
#80
b1111111111111 S
1V
b1 @
b1 G
0D
b10001100000101 F
b1 R
b1111 v
b1111 $"
b1111 N"
b1111 2"
b11111111 [
b11111111 n
b1100001010 T
b1100001010 I
b1100001010 K
b0 H
b0 M
b10001100000101 E
b10001100000101 Z
b1111111111111111 .
b1111111111111111 ;
b1111111111111111 Q
b1100001010 B
b1100001001 O
b1 N
b10011 E"
1$
#81
0$
#82
b0 S
19
b1 H
b0 v
b0 $"
b0 N"
b0 2"
b0 [
b0 n
b0 @
1C
b1 F
b0 R
b1 M
b1100001011 K
b1100001011 T
b1100001011 I
b0 .
b0 ;
b0 Q
b1100001011 B
b1100001010 O
bx -
bx =
bx ]
bx p
bx x
bx '"
bx 4"
bx P"
bx ?
bx U
b0 N
b1111111111111111 A
b1111111111111111 Y
b1000000000000001 E
b1000000000000001 Z
b10100 E"
1$
#83
0$
#84
0V
b110100000000000 M
b1100001100 K
b0 G
b110100000000000 F
b1000 R
b1 v
b1 $"
b1 N"
b1 2"
b1 [
b1 n
b1100001100 T
b1100001100 I
b10 H
b1110100000000000 E
b1110100000000000 Z
b1100010010 A
b1100010010 Y
b1 .
b1 ;
b1 Q
b1100001100 B
b1100001011 O
b0 -
b0 =
b0 ]
b0 p
b0 x
b0 '"
b0 4"
b0 P"
b0 ?
b0 U
b1 N
b10101 E"
1$
#85
0$
